\relax 
\providecommand\hyper@newdestlabel[2]{}
\catcode `"\active 
\providecommand\HyperFirstAtBeginDocument{\AtBeginDocument}
\HyperFirstAtBeginDocument{\ifx\hyper@anchor\@undefined
\global\let\oldcontentsline\contentsline
\gdef\contentsline#1#2#3#4{\oldcontentsline{#1}{#2}{#3}}
\global\let\oldnewlabel\newlabel
\gdef\newlabel#1#2{\newlabelxx{#1}#2}
\gdef\newlabelxx#1#2#3#4#5#6{\oldnewlabel{#1}{{#2}{#3}}}
\AtEndDocument{\ifx\hyper@anchor\@undefined
\let\contentsline\oldcontentsline
\let\newlabel\oldnewlabel
\fi}
\fi}
\global\let\hyper@last\relax 
\gdef\HyperFirstAtBeginDocument#1{#1}
\providecommand\HyField@AuxAddToFields[1]{}
\providecommand\HyField@AuxAddToCoFields[2]{}
\select@language{ngerman}
\@writefile{toc}{\select@language{ngerman}}
\@writefile{lof}{\select@language{ngerman}}
\@writefile{lot}{\select@language{ngerman}}
\select@language{english}
\@writefile{toc}{\select@language{english}}
\@writefile{lof}{\select@language{english}}
\@writefile{lot}{\select@language{english}}
\@writefile{toc}{\contentsline {sheet}{\numberline {Sheet~2}Perceptrons\\ Multi-Layer Perceptrons\\ Non-linear Features}{2~--~1}{sheet.2}}
\@writefile{toc}{\contentsline {exercise}{\numberline {Exercise~2.1}Perceptrons}{2~--~1}{exercise.2.1}}
\newlabel{fig:plotperceptron}{{2.1}{2~--~1}{(a)}{section*.1}{}}
\@writefile{toc}{\contentsline {exercise}{\numberline {Exercise~2.2}Perceptron Learning}{2~--~2}{exercise.2.2}}
\@writefile{toc}{\contentsline {exercise}{\numberline {Exercise~2.3}Perceptron Networks}{2~--~2}{exercise.2.3}}
\@writefile{lof}{\contentsline {figure}{\numberline {1}{\ignorespaces The resulting neural network.}}{2~--~2}{figure.0.1}}
\@writefile{toc}{\contentsline {exercise}{\numberline {Exercise~2.4}Nonlinear Feature Spaces}{2~--~3}{exercise.2.4}}
\@writefile{lof}{\contentsline {figure}{\numberline {2}{\ignorespaces Before feature transform. \leavevmode {\color  {red!70!black}Negative} patterns depicted in red, \leavevmode {\color  {blue!70!black}positive} patterns depicted in blue.}}{2~--~3}{figure.0.2}}
\@writefile{lof}{\contentsline {figure}{\numberline {3}{\ignorespaces The Perceptron with weight vector $(2.5, 0, -1)$ separates the data.}}{2~--~3}{figure.0.3}}
\@writefile{lof}{\contentsline {figure}{\numberline {4}{\ignorespaces The data is not linearly separable.}}{2~--~4}{figure.0.4}}
