# Created by Octave 3.8.1, Sun May 24 17:32:55 2015 CEST <moritz@moritz-Aspire-M5910>
# name: email
# type: sq_string
# elements: 1
# length: 18
freidankm@yahoo.de


# name: token
# type: sq_string
# elements: 1
# length: 16
vdyvrMvJd4tfivT5


